"Country","Wood.Product","Forest.Cover","Primary.Forest.Cover","GDP","Percent.Primary.Forest"
"Kenya",24900000,3582000,716000,17539.4420048658,0.199888330541597
"Lesotho",2227000,7000,1000,298.4058429339,0.142857142857143
"Malawi",6297000,3567000,1330000,10143.3680764924,0.372862349313148
"Seychelles",12000,40000,2000,655.0974326026,0.05
"Chad",4168000,12317000,196000,56042.1739130435,0.0159129658195989
"Niger",12151000,1328000,220000,1579.348239558,0.16566265060241
"Sudan",21715000,70491000,14098000,131.0463340947,0.199997162758366
"Congo, Rep.",2424000,22556000,7492000,44310.9023237476,0.332151090618904
"Cote d'Ivoire",12137000,10328000,625000,5144.5892535574,0.0605151045701007
"Ghana",24999000,6094000,353000,1026.831555101,0.0579258286839514
"Guinea-Bissau",1309000,2120000,940000,4068.8213505972,0.443396226415094
"Liberia",5610000,3455000,129000,628.2281148277,0.0373371924746744
"Nigeria",79002000,13137000,736000,4861.6775099466,0.056024967648626
"Senegal",5131000,8898000,1653000,29980.1554729546,0.185772083614295
"Korea, Dem. Rep.",8043000,6821000,939000,1291.3416130102,0.137663099252309
"Japan",18843000,24876000,4054000,1475.8444095689,0.162968322881492
"Mongolia",448000,10665000,4923000,2211.0224589478,0.461603375527426
"Bhutan",290000,3141000,413000,4143.9271888778,0.131486787647246
"Brunei",100000,288000,288000,123.6809167536,1
"Cambodia",3192000,11541000,456000,23224.0986344016,0.0395113075123473
"Indonesia",24409000,97852000,55941000,2074.7473180259,0.57168989903119
"Laos",7424000,16532000,1490000,23529.538458379,0.0901282361480765
"Malaysia",28289000,21591000,3820000,21774.992990193,0.176925570839702
"Nepal",110000,3900000,384000,4102.6246021578,0.0984615384615385
"Philippines",759000,7949000,829000,691.997705192,0.104289847779595
"Sri Lanka",7546000,2082000,197000,259.990694421,0.0946205571565802
"Vietnam",27219000,11725000,187000,19004.0034517255,0.0159488272921109
"Cyprus",28000,173000,22000,358.9629090605,0.127167630057803
"Georgia",389000,2760000,500000,173.6626945628,0.181159420289855
"Iran",2105000,11075000,200000,972.127885621,0.018058690744921
"Kyrgyzstan",45000,858000,240000,450.4151061239,0.27972027972028
"Tajikistan",6000,410000,297000,19388.2787508005,0.724390243902439
"Turkey",32024000,10052000,897000,3479.0567543914,0.0892359729407083
"Turkmenistan",10000,4127000,104000,37291.7061580448,0.0251999030772959
"Uzbekistan",29000,3212000,57000,1229.0009584738,0.0177459526774595
"Albania",157000,769000,85000,812.2820767535,0.110533159947984
"Belarus",7367000,7848000,400000,19434.4000155478,0.0509683995922528
"Bulgaria",3778000,3375000,396000,3300.9346563049,0.117333333333333
"Croatia",4062000,2129000,10000,379.7756225653,0.00469704086425552
"Estonia",11164000,2243000,137000,75606.203199265,0.0610789121711993
"Finland",60603000,22475000,1418000,46453.2457786449,0.0630923248053393
"France",58330000,15351000,30000,1785.3267915473,0.00195427008012507
"Italy",10031000,9447000,160000,489.5116449916,0.0169365936276066
"Latvia",11574000,2885000,15000,3861.0385424078,0.00519930675909879
"Lithuania",6171000,2020000,21000,5816.6144809617,0.0103960396039604
"Poland",29882000,9059000,51000,1271.8110919,0.00562976045921183
"Portugal",10590000,3583000,55000,233.4392655662,0.0153502651409433
"Romania",14285000,6366000,233000,2061.6209714655,0.0366006911718505
"Serbia and Montenegro",3002000,2649000,4000,24179.7314074386,0.00151000377500944
"Slovenia",2547000,1239000,95000,12579.5951055864,0.0766747376916868
"Spain",17965000,16436000,748000,13375.7805215496,0.0455098564127525
"Sweden",70570000,27474000,4600000,1006.6273100808,0.167431025697023
"Switzerland",6421000,1199000,6000,164.6489475745,0.00500417014178482
"Guadeloupe",18000,81000,19000,16192.1269719638,0.234567901234568
"Belize",216000,1653000,612000,543.9990393115,0.370235934664247
"Costa Rica",2398000,2376000,180000,9400.811686238,0.0757575757575758
"El Salvador",5957000,324000,6000,492.2862252328,0.0185185185185185
"Honduras",14022000,5430000,1512000,7578.8510529885,0.278453038674033
"Nicaragua",1454000,5539000,1849000,153.4779676959,0.333814768008666
"Panama",573000,4307000,3239000,23814.5566140227,0.752031576503367
"Canada",214788000,310134000,165424000,5330.4016218875,0.533395242056659
"Mexico",8740000,65540000,34825000,1064.5146874564,0.531354897772353
"United States",548065000,302294000,105258000,3019.9463672255,0.34819745016441
"Australia",28200000,164645000,5233000,14413.788872416,0.0317835342707036
"Fiji",250000,1000000,894000,358.52920101,0.894
"New Caledonia",6000,717000,431000,307.98615463,0.601115760111576
"New Zealand",21280000,8226000,3506000,1943.2379281396,0.426209579382446
"Papua New Guinea",8347000,30132000,26462000,1926.0045791486,0.878202575335192
"Bolivia",609000,60091000,30036000,25057.613530497,0.499841906441896
"Brazil",293219000,493213000,433220000,35081.9230843615,0.878362897977142
"Chile",41276000,15834000,4145000,6914.3625819776,0.261778451433624
"Colombia",10809000,60963000,53343000,558.2211439778,0.875006151272083
"Ecuador",7976000,11841000,4794000,1469.7617874515,0.404864454015708
"French Guiana",52000,8063000,7761000,401.5478021279,0.962544958452189
"Peru",9752000,69213000,62188000,1369.1930272878,0.89850172655426
"Uruguay",3333000,1409000,296000,318.9268221695,0.210078069552874
