"Country","Wood.Product","Forest.Cover","Primary.Forest.Cover","GDP","Percent.Primary.Forest"
"Kenya",21385000,3708000,742000,16070.0657663566,0.200107874865156
"Lesotho",1771000,5000,1000,372.7945134741,0.2
"Malawi",6348000,3896000,1727000,9454.0212457792,0.443275154004107
"Seychelles",10000,40000,2000,1250.7400636853,0.05
"Chad",3931000,13110000,209000,43766.2130008261,0.0159420289855072
"Niger",9544000,1945000,220000,1670.9483000333,0.113110539845758
"Sudan",20684000,76381000,15276000,181.9453709363,0.199997381547767
"Cote d'Ivoire",8826000,10222000,625000,3067.6505801944,0.0611426335355116
"Ghana",16078000,7448000,353000,1170.0245880404,0.0473952738990333
"Guinea-Bissau",1110000,2216000,940000,3119.6325642649,0.424187725631769
"Liberia",5048000,4058000,129000,662.8675346988,0.0317890586495811
"Senegal",4696000,9348000,1759000,24097.9079179961,0.188168592212238
"Korea, Dem. Rep.",5745000,8201000,1129000,1299.2112044887,0.13766613827582
"Japan",31130000,24950000,3764000,1153.6845134985,0.150861723446894
"Mongolia",1084000,11492000,5540000,1570.0465295898,0.482074486599373
"Brunei",100000,313000,313000,127.8881274136,1
"Indonesia",26560000,116567000,70419000,1833.1843637026,0.604107508986248
"Laos",6965000,17314000,1490000,19921.0231615077,0.0860575257017443
"Malaysia",53739000,22376000,3820000,18731.6620219875,0.170718627100465
"Nepal",138000,4817000,391000,4626.7815288377,0.0811708532281503
"Philippines",2721000,10574000,829000,1697.5249604291,0.0783998486854549
"Sri Lanka",9355000,2350000,257000,221.0716695529,0.10936170212766
"Vietnam",35505000,9363000,384000,16113.202557823,0.0410124959948734
"Cyprus",56000,161000,22000,354.5049157338,0.136645962732919
"Georgia",351000,2760000,500000,183.0783660503,0.181159420289855
"Iran",1681000,11075000,200000,609.9144220904,0.018058690744921
"Tajikistan",6000,408000,297000,16599.9200894845,0.727941176470588
"Turkey",36104000,9680000,739000,3159.362566759,0.0763429752066116
"Turkmenistan",10000,4127000,104000,34236.7142646418,0.0251999030772959
"Uzbekistan",49000,3045000,57000,1611.7125482131,0.0187192118226601
"Albania",626000,789000,85000,670.2638547249,0.107731305449937
"Bulgaria",3400000,3327000,267000,3912.2453992735,0.0802524797114518
"Croatia",2287000,2116000,10000,307.6918798536,0.00472589792060491
"Finland",47203000,22194000,1491000,32473.9860522964,0.0671803190051365
"France",55621000,14538000,30000,2059.4185923411,0.00206355757325629
"Ireland",1789000,441000,1000,2137.6897308219,0.00226757369614512
"Italy",9877000,8383000,160000,487.307039301,0.019086245973995
"Lithuania",3651000,1945000,20000,4902.6449907304,0.0102827763496144
"Poland",23617000,8881000,30000,1172.3956123,0.00337799797320122
"Portugal",11922000,3099000,55000,184.4697291832,0.0177476605356567
"Romania",17218000,6371000,233000,1831.0589284143,0.0365719667242191
"Serbia and Montenegro",3806000,2559000,4000,18858.0012351002,0.00156311059007425
"Slovenia",2978000,1188000,63000,13562.6525494894,0.053030303030303
"Spain",18517000,13479000,621000,11627.1065224781,0.0460716670376141
"Sweden",58140000,27367000,4348000,888.068968819,0.158877480176855
"Switzerland",5345000,1155000,3000,193.4979576336,0.0025974025974026
"Guadeloupe",21000,84000,19000,11607.8868249578,0.226190476190476
"Costa Rica",1198000,2564000,255000,8930.3755151983,0.0994539781591264
"El Salvador",4275000,375000,6000,477.0034156636,0.016
"Honduras",10916000,7385000,1512000,5645.4158127653,0.204739336492891
"Nicaragua",1908000,6538000,1849000,254.793668225,0.282808198225757
"Panama",813000,4376000,3706000,15787.9025627103,0.846892138939671
"Canada",195869000,310134000,165424000,5316.2138959372,0.533395242056659
"Mexico",9399000,69016000,38775000,1101.2479939991,0.561826243189985
"United States",596920000,298648000,105268000,3151.8386140324,0.352481851544293
"Fiji",291000,979000,895000,264.20469266,0.914198161389173
"New Caledonia",11000,717000,431000,304.64055268,0.601115760111576
"New Zealand",13841000,7720000,3506000,1390.5202114071,0.454145077720207
"Papua New Guinea",8795000,31523000,29210000,1493.74331522,0.926625003965359
"Brazil",368706000,520027000,460513000,28298.446951237,0.885555942287612
"Chile",26092000,15263000,4152000,5253.9429025279,0.272030400314486
"Colombia",11819000,61439000,53854000,684.7222036466,0.876544214586826
"Ecuador",7250000,13817000,4794000,1327.3565810637,0.346963885069118
"French Guiana",91000,8091000,7909000,227.4878658517,0.977505870720554
"Uruguay",2897000,905000,239000,387.2928050284,0.264088397790055
