;1990;2000;2005
Angola;;;
Botswana;;;
British Indian Ocean Territory;;;
Comoros;;;
Kenya;742000;716000;704000
Lesotho;1000;1000;1000
Madagascar;10503000;10381000;10347000
Malawi;1727000;1330000;1132000
Mauritius;;;
Mayotte;;;
Mozambique;;;
Namibia;;;
Reunion;55000;55000;55000
Seychelles;2000;2000;2000
South Africa;;;
Swaziland;;;
Uganda;;;
Tanzania;;;
Zambia;;;
Zimbabwe;;;
Algeria;;;
Burkina Faso;;;
Chad;209000;196000;190000
Djibouti;;;
Egypt;;;
Eritrea;;;
Ethiopia;;;
Libya;;;
Mali;;;
Mauritania;;;
Morocco;;;
Niger;220000;220000;220000
Somalia;;;
Sudan;15276000;14098000;13509000
Tunisia;;;
Western Sahara;;;
Benin;;;
Burundi;;;
Cameroon;;;
Cape Verde;;;
Central African Rep.;;;
Congo, Rep.;7548000;7492000;7464000
Cote d'Ivoire;625000;625000;625000
Congo, Dem. Rep.;;;
Equatorial Guinea;;;
Gabon;;;
Gambia;;;
Ghana;353000;353000;353000
Guinea;63000;63000;63000
Guinea-Bissau;940000;940000;940000
Liberia;129000;129000;129000
Nigeria;1556000;736000;326000
Rwanda;;;
Saint Helena;;;
Sao Tome and Principe;12000;12000;12000
Senegal;1759000;1653000;1598000
Sierra Leone;;;
Togo;;;
China;11632000;11632000;11632000
Korea, Dem. Rep.;1129000;939000;852000
Japan;3764000;4054000;4591000
Mongolia;5540000;4923000;4733000
Korea, Rep.;;;
Bangladesh;;;
Bhutan;413000;413000;413000
Brunei;313000;288000;278000
Cambodia;766000;456000;322000
India;;;
Indonesia;70419000;55941000;48702000
Laos;1490000;1490000;1490000
Malaysia;3820000;3820000;3820000
Maldives;;;
Myanmar;;;
Nepal;391000;384000;349000
Pakistan;;;
Philippines;829000;829000;829000
Singapore;2000;2000;2000
Sri Lanka;257000;197000;167000
Thailand;6451000;6451000;6451000
Timor-Leste;;;
Vietnam;384000;187000;85000
Afghanistan;;;
Armenia;17000;15000;14000
Azerbaijan;400000;400000;400000
Bahrain;;;
Cyprus;22000;22000;22000
Georgia;500000;500000;500000
Iran;200000;200000;200000
Iraq;;;
Israel;;;
Jordan;;;
Kazakhstan;;;
Kuwait;;;
Kyrgyzstan;237000;240000;241000
Lebanon;;;
West Bank and Gaza;;;
Oman;;;
Qatar;;;
Saudi Arabia;;;
Syria;;;
Tajikistan;297000;297000;297000
Turkey;739000;897000;975000
Turkmenistan;104000;104000;104000
United Arab Emirates;;;
Uzbekistan;57000;57000;57000
Yemen, Rep.;;;
Albania;85000;85000;85000
Andorra;;;
Austria;117000;119000;
Belarus;400000;400000;400000
Belgium;;;
Bosnia and Herzegovina;;2000;2000
Bulgaria;267000;396000;
Channel Islands;;;
Croatia;10000;10000;10000
Czech Rep.;;;
Denmark;;;
Estonia;;137000;142000
Faeroe Islands;;;
Finland;1491000;1418000;1419000
France;30000;30000;30000
Germany;;;
Gibraltar;;;
Greece;;;
Holy See;;;
Hungary;;;
Iceland;;;
Ireland;1000;;
Isle of Man;;;
Italy;160000;160000;
Latvia;;15000;14000
Liechtenstein;2000;2000;2000
Lithuania;20000;21000;26000
Luxembourg;;;
Malta;;;
Monaco;;;
Netherlands;;;
Norway;250000;250000;250000
Poland;30000;51000;53000
Portugal;55000;55000;55000
Moldova;;;
Romania;233000;233000;233000
Russia;241726000;258131000;255470000
San Marino;;;
Serbia and Montenegro;4000;4000;4000
Slovak Republic;24000;24000;24000
Slovenia;63000;95000;119000
Spain;621000;748000;812000
Sweden;4348000;4600000;4726000
Switzerland;3000;6000;14000
Macedonia, FYR;;;
Ukraine;59000;59000;59000
United Kingdom;;;
Anguilla;;;
Antigua and Barbuda;;;
Aruba;;;
Bahamas;;;
Barbados;;;
Bermuda;;;
British Virgin Islands;;;
Cayman Islands;;;
Cuba;;;
Dominica;28000;28000;27000
Dominican Rep.;;;
Grenada;1000;1000;1000
Guadeloupe;19000;19000;19000
Haiti;;;
Jamaica;;;
Martinique;;;
Montserrat;;;
Netherlands Antilles;;;
Puerto Rico;;;
Saint Kitts and Nevis;;;
Saint Lucia;;;
Saint Vincent and the Grenadines;;;
Trinidad and Tobago;14000;14000;14000
Turks and Caicos Islands;;;
Virgin Islands (U.S.);;;
Belize;612000;612000;612000
Costa Rica;255000;180000;180000
El Salvador;6000;6000;6000
Guatemala;2359000;2091000;1957000
Honduras;1512000;1512000;1512000
Nicaragua;1849000;1849000;1849000
Panama;3706000;3239000;3023000
Canada;165424000;165424000;165424000
Greenland;;;
Mexico;38775000;34825000;32850000
Saint-Pierre-et-Miquelon;;;
United States;105268000;105258000;104182000
American Samoa;;;
Australia;;5233000;5233000
Cook Islands;;;
Fiji;895000;894000;894000
French Polynesia;;;
Guam;;;
Kiribati;;;
Marshall Islands;;;
Micronesia, Fed. Sts.;;;
Nauru;;;
New Caledonia;431000;431000;431000
New Zealand;3506000;3506000;3506000
Niue;;;
Northern Mariana Islands;;;
Palau;;;
Papua New Guinea;29210000;26462000;25211000
Pitcairn;;;
Samoa;;;
Solomon Islands;;;
Tokelau;;;
Tonga;;;
Tuvalu;;;
Vanuatu;;;
Wallis et Futuna;;;
Argentina;;;
Bolivia;31388000;30036000;29360000
Brazil;460513000;433220000;415890000
Chile;4152000;4145000;4142000
Colombia;53854000;53343000;53062000
Ecuador;4794000;4794000;4794000
Falkland Islands (Malvinas);;;
French Guiana;7909000;7761000;7701000
Guyana;;9314000;9314000
Paraguay;1850000;1850000;1850000
Peru;62910000;62188000;61065000
South Ossetia;;;
Suriname;14214000;14214000;14214000
Uruguay;239000;296000;296000
Venezuela;;;
