;1990;2000;2005
Angola;3668000;4905000;5196000
Botswana;792000;851000;881000
British Indian Ocean Territory;;;
Comoros;168000;193000;206000
Kenya;21385000;24900000;26658000
Lesotho;1771000;2227000;2455000
Madagascar;7246000;9973000;7031000
Malawi;6348000;6297000;6272000
Mauritius;27000;18000;14000
Mayotte;;;
Mozambique;18174000;20744000;22029000
Namibia;;;
Reunion;;;8000
Seychelles;10000;12000;13000
South Africa;15521000;17000000;17741000
Swaziland;1814000;1024000;1024000
Uganda;35909000;42936000;46449000
Tanzania;23846000;26637000;28033000
Zambia;8073000;9259000;9851000
Zimbabwe;8552000;10519000;11566000
Algeria;165000;184000;195000
Burkina Faso;6339000;7248000;7338000
Chad;3931000;4168000;4292000
Djibouti;;;
Egypt;;;240000
Eritrea;;2551000;2551000
Ethiopia;85841000;103188000;111861000
Libya;;;
Mali;4961000;5911000;6386000
Mauritania;1097000;1651000;
Morocco;1012000;897000;949000
Niger;9544000;12151000;12473000
Somalia;7437000;10703000;12334000
Sudan;20684000;21715000;22230000
Tunisia;208000;236000;274000
Western Sahara;14000;23000;23000
Benin;;;
Burundi;6721000;8217000;9693000
Cameroon;14861000;17989000;19772000
Cape Verde;;;
Central African Rep.;4054000;3566000;3566000
Congo, Rep.;2059000;2424000;2767000
Cote d'Ivoire;8826000;12137000;12545000
Congo, Dem. Rep.;54922000;78791000;82994000
Equatorial Guinea;714000;933000;933000
Gabon;2198000;3550000;4227000
Gambia;602000;783000;873000
Ghana;16078000;24999000;29458000
Guinea;11412000;13179000;14001000
Guinea-Bissau;1110000;1309000;1417000
Liberia;5048000;5610000;5918000
Nigeria;63756000;79002000;86627000
Rwanda;3114000;7789000;10429000
Saint Helena;;;
Sao Tome and Principe;10000;10000;10000
Senegal;4696000;5131000;5110000
Sierra Leone;5534000;6212000;6551000
Togo;;7054000;6332000
China;159081000;144775000;135435000
Korea, Dem. Rep.;5745000;8043000;8692000
Japan;31130000;18843000;22334000
Mongolia;1084000;448000;448000
Korea, Rep.;3911000;4019000;4074000
Bangladesh;802000;1114000;1269000
Bhutan;313000;290000;277000
Brunei;100000;100000;100000
Cambodia;3250000;3192000;
India;9001000;5735000;4724000
Indonesia;26560000;24409000;11257000
Laos;6965000;7424000;7424000
Malaysia;53739000;28289000;24014000
Maldives;;;
Myanmar;39084000;40708000;43060000
Nepal;138000;110000;119000
Pakistan;27174000;31660000;33904000
Philippines;2721000;759000;541000
Singapore;;;
Sri Lanka;9355000;7546000;6642000
Thailand;710000;54000;49000
Timor-Leste;;;
Vietnam;35505000;27219000;23735000
Afghanistan;2391000;1033000;863000
Armenia;;79000;91000
Azerbaijan;;15000;16000
Bahrain;;;
Cyprus;56000;28000;13000
Georgia;351000;389000;619000
Iran;1681000;2105000;2468000
Iraq;;9000;
Israel;61000;65000;20000
Jordan;6000;10000;12000
Kazakhstan;;;
Kuwait;;;
Kyrgyzstan;;45000;37000
Lebanon;;;
West Bank and Gaza;;;
Oman;;;
Qatar;;;
Saudi Arabia;35000;46000;
Syria;6000;5000;
Tajikistan;6000;6000;6000
Turkey;36104000;32024000;29983000
Turkmenistan;10000;10000;10000
United Arab Emirates;;;
Uzbekistan;49000;29000;30000
Yemen, Rep.;;;
Albania;626000;157000;168000
Andorra;;;
Austria;17318000;16834000;20127000
Belarus;;7367000;8568000
Belgium;4352000;3526000;4368000
Bosnia and Herzegovina;4773000;4326000;4139000
Bulgaria;3400000;3778000;4200000
Channel Islands;;;
Croatia;2287000;4062000;4950000
Czech Rep.;13030000;15860000;17274000
Denmark;2023000;2099000;1807000
Estonia;3206000;11164000;9602000
Faeroe Islands;;;
Finland;47203000;60603000;64295000
France;55621000;58330000;51475000
Germany;42177000;48818000;60770000
Gibraltar;;;
Greece;2979000;2221000;1842000
Holy See;;;
Hungary;5945000;5902000;5528000
Iceland;;;
Ireland;1789000;2778000;2819000
Isle of Man;;;
Italy;9877000;10031000;9600000
Latvia;4820000;11574000;11500000
Liechtenstein;21000;21000;21000
Lithuania;3651000;6171000;7727000
Luxembourg;;230000;139000
Malta;;;
Monaco;;;
Netherlands;1518000;1147000;1200000
Norway;12475000;10304000;9219000
Poland;23617000;29882000;33015000
Portugal;11922000;10590000;11123000
Moldova;;62000;65000
Romania;17218000;14285000;17300000
Russia;336527000;152316000;180000000
San Marino;;;
Serbia and Montenegro;3806000;3002000;2600000
Slovak Republic;5545000;6150000;6732000
Slovenia;2978000;2547000;3153000
Spain;18517000;17965000;17689000
Sweden;58140000;70570000;76780000
Switzerland;5345000;6421000;6958000
Macedonia, FYR;;927000;927000
Ukraine;13590000;12231000;14820000
United Kingdom;7152000;8471000;8895000
Anguilla;;;
Antigua and Barbuda;;;
Aruba;;;
Bahamas;132000;20000;20000
Barbados;;6000;6000
Bermuda;;;
British Virgin Islands;;;
Cayman Islands;;;
Cuba;3089000;2433000;2195000
Dominica;;;
Dominican Rep.;646000;646000;646000
Grenada;;;
Guadeloupe;21000;18000;18000
Haiti;2165000;2532000;2550000
Jamaica;;1000;1000
Martinique;14191000;13800000;13800000
Montserrat;;;
Netherlands Antilles;;;
Puerto Rico;;;
Saint Kitts and Nevis;;;
Saint Lucia;;;
Saint Vincent and the Grenadines;;;
Trinidad and Tobago;60000;67000;75000
Turks and Caicos Islands;;;
Virgin Islands (U.S.);;;
Belize;216000;216000;216000
Costa Rica;1198000;2398000;2400000
El Salvador;4275000;5957000;5201000
Guatemala;13143000;17211000;19245000
Honduras;10916000;14022000;15576000
Nicaragua;1908000;1454000;1846000
Panama;813000;573000;464000
Canada;195869000;214788000;223500000
Greenland;;;
Mexico;9399000;8740000;8351000
Saint-Pierre-et-Miquelon;;;
United States;596920000;548065000;540838000
American Samoa;;;
Australia;20331000;28200000;29826000
Cook Islands;;6000;6000
Fiji;291000;250000;254000
French Polynesia;;;
Guam;;;
Kiribati;;;
Marshall Islands;;;
Micronesia, Fed. Sts.;;;
Nauru;;;
New Caledonia;11000;6000;6000
New Zealand;13841000;21280000;24687000
Niue;;6000;6000
Northern Mariana Islands;;;
Palau;;;
Papua New Guinea;8795000;8347000;8364000
Pitcairn;;;
Samoa;8000;15000;11000
Solomon Islands;529000;920000;796000
Tokelau;;;
Tonga;5000;3000;2000
Tuvalu;;;
Vanuatu;73000;135000;152000
Wallis et Futuna;;;
Argentina;10954000;11002000;11026000
Bolivia;;609000;620000
Brazil;368706000;293219000;290476000
Chile;26092000;41276000;48867000
Colombia;11819000;10809000;10275000
Ecuador;7250000;7976000;8339000
Falkland Islands (Malvinas);;;
French Guiana;91000;52000;70000
Guyana;;412000;
Paraguay;9528000;11058000;11823000
Peru;7676000;9752000;10789000
South Ossetia;;;
Suriname;116000;176000;205000
Uruguay;2897000;3333000;4900000
Venezuela;664000;1138000;813000
