"FeedType","PredLifestage","Slope","Intercept","RSquared","FStatistic","PValue"
"insectivorous","adult","NA","NA","NA","NA","NA"
"insectivorous","juvenile","NA","NA","NA","NA","NA"
"insectivorous","larva","NA","NA","NA","NA","NA"
"insectivorous","larva / juvenile","81.1591380069623","-3.45975627178894","0.621254577117463","49.2088780154159","8.51926669047012e-08"
"insectivorous","postlarva","NA","NA","NA","NA","NA"
"insectivorous","postlarva/juvenile","NA","NA","NA","NA","NA"
"piscivorous","adult","59.1262314720644","18859.8842209802","0.021536869262521","389.54918201242","8.67461555109464e-86"
"piscivorous","juvenile","10.2848479190317","5510.17020640088","0.00959947808315517","29.3392617579319","6.55097406740425e-08"
"piscivorous","larva","NA","NA","NA","NA","NA"
"piscivorous","larva / juvenile","172.511898493461","9.86483143239672","0.232313578702393","2.72353678574574","0.133275952079355"
"piscivorous","postlarva","0.582050921513236","0.0382407206914082","0.605743142370175","47.6289430356757","9.72722953165703e-08"
"piscivorous","postlarva/juvenile","NA","NA","NA","NA","NA"
"planktivorous","adult","152.795681507932","26967.7354654314","0.0148266421747683","2.34776566062415","0.12748816361192"
"planktivorous","juvenile","NA","NA","NA","NA","NA"
"planktivorous","larva","-0.125540385475094","0.149952307811492","0.000229535758135438","0.234868991404557","0.628040559141267"
"planktivorous","larva / juvenile","100348.136755092","0.41201753189867","0.0281834521378093","3.42209376818833","0.0668312825188673"
"planktivorous","postlarva","NA","NA","NA","NA","NA"
"planktivorous","postlarva/juvenile","21012.870102476","0.153516129748767","0.0763315504427213","21.65156363799","5.19518130117455e-06"
"predacious","adult","86.6733851893607","14022.5769795346","0.0760967901124047","653.067813104215","1.72637702927156e-138"
"predacious","juvenile","72.527690997458","1477.06697786479","0.0702164807756489","158.590259538987","4.12858422953433e-35"
"predacious","larva","16253.0221597405","0.107758676365579","0.321359300269679","572.975881760159","5.60208041879037e-104"
"predacious","larva / juvenile","164.216226022138","1.51278179933138","0.126808753413814","70.4338776254893","5.25237217935004e-16"
"predacious","postlarva","-0.00861452759101591","0.133502073567387","0.0105760559264123","0.748237314533598","0.389989666306616"
"predacious","postlarva/juvenile","1.7461898824416","0.565541752418578","0.046276154857748","28.5306686992787","1.32011188235226e-07"
"predacious/piscivorous","adult","11.949120671082","503.058942134918","0.194433583643607","38.3766492391315","4.79389028064082e-09"
"predacious/piscivorous","juvenile","NA","NA","NA","NA","NA"
"predacious/piscivorous","larva","NA","NA","NA","NA","NA"
"predacious/piscivorous","larva / juvenile","NA","NA","NA","NA","NA"
"predacious/piscivorous","postlarva","NA","NA","NA","NA","NA"
"predacious/piscivorous","postlarva/juvenile","NA","NA","NA","NA","NA"
